digraph model_graph {
  // Dotfile by Django-Extensions graph_models
  // Created: 2022-04-11 14:08
  // Cli Options: webapp

  fontname = "Roboto"
  fontsize = 8
  splines  = true
  rankdir = "TB"

  node [
    fontname = "Roboto"
    fontsize = 8
    shape = "plaintext"
  ]

  edge [
    fontname = "Roboto"
    fontsize = 8
  ]

  // Labels


  webapp_models_OpenHour [label=<
    <TABLE BGCOLOR="white" BORDER="1" CELLBORDER="0" CELLSPACING="0">
    <TR><TD COLSPAN="2" CELLPADDING="5" ALIGN="CENTER" BGCOLOR="#1b563f">
    <FONT FACE="Roboto" COLOR="white" POINT-SIZE="10"><B>
    OpenHour
    </B></FONT></TD></TR>
  
  
    <TR><TD ALIGN="LEFT" BORDER="0">
    <FONT FACE="Roboto"><B>id</B></FONT>
    </TD><TD ALIGN="LEFT">
    <FONT FACE="Roboto"><B>BigAutoField</B></FONT>
    </TD></TR>
  
  
  
    <TR><TD ALIGN="LEFT" BORDER="0">
    <FONT FACE="Roboto">from_hour</FONT>
    </TD><TD ALIGN="LEFT">
    <FONT FACE="Roboto">TimeField</FONT>
    </TD></TR>
  
  
  
    <TR><TD ALIGN="LEFT" BORDER="0">
    <FONT FACE="Roboto">to_hour</FONT>
    </TD><TD ALIGN="LEFT">
    <FONT FACE="Roboto">TimeField</FONT>
    </TD></TR>
  
  
  
    <TR><TD ALIGN="LEFT" BORDER="0">
    <FONT FACE="Roboto">weekday</FONT>
    </TD><TD ALIGN="LEFT">
    <FONT FACE="Roboto">IntegerField</FONT>
    </TD></TR>
  
  
    </TABLE>
    >]

  webapp_models_Seller [label=<
    <TABLE BGCOLOR="white" BORDER="1" CELLBORDER="0" CELLSPACING="0">
    <TR><TD COLSPAN="2" CELLPADDING="5" ALIGN="CENTER" BGCOLOR="#1b563f">
    <FONT FACE="Roboto" COLOR="white" POINT-SIZE="10"><B>
    Seller
    </B></FONT></TD></TR>
  
  
    <TR><TD ALIGN="LEFT" BORDER="0">
    <FONT FACE="Roboto"><B>id</B></FONT>
    </TD><TD ALIGN="LEFT">
    <FONT FACE="Roboto"><B>AutoField</B></FONT>
    </TD></TR>
  
  
  
    <TR><TD ALIGN="LEFT" BORDER="0">
    <FONT FACE="Roboto"><B>user</B></FONT>
    </TD><TD ALIGN="LEFT">
    <FONT FACE="Roboto"><B>OneToOneField (id)</B></FONT>
    </TD></TR>
  
  
  
    <TR><TD ALIGN="LEFT" BORDER="0">
    <FONT FACE="Roboto">address_1</FONT>
    </TD><TD ALIGN="LEFT">
    <FONT FACE="Roboto">CharField</FONT>
    </TD></TR>
  
  
  
    <TR><TD ALIGN="LEFT" BORDER="0">
    <FONT COLOR="#7B7B7B" FACE="Roboto">address_2</FONT>
    </TD><TD ALIGN="LEFT">
    <FONT COLOR="#7B7B7B" FACE="Roboto">CharField</FONT>
    </TD></TR>
  
  
  
    <TR><TD ALIGN="LEFT" BORDER="0">
    <FONT FACE="Roboto">approved</FONT>
    </TD><TD ALIGN="LEFT">
    <FONT FACE="Roboto">BooleanField</FONT>
    </TD></TR>
  
  
  
    <TR><TD ALIGN="LEFT" BORDER="0">
    <FONT FACE="Roboto">city</FONT>
    </TD><TD ALIGN="LEFT">
    <FONT FACE="Roboto">CharField</FONT>
    </TD></TR>
  
  
  
    <TR><TD ALIGN="LEFT" BORDER="0">
    <FONT FACE="Roboto">cooking_time_range</FONT>
    </TD><TD ALIGN="LEFT">
    <FONT FACE="Roboto">CharField</FONT>
    </TD></TR>
  
  
  
    <TR><TD ALIGN="LEFT" BORDER="0">
    <FONT COLOR="#7B7B7B" FACE="Roboto">description</FONT>
    </TD><TD ALIGN="LEFT">
    <FONT COLOR="#7B7B7B" FACE="Roboto">TextField</FONT>
    </TD></TR>
  
  
  
    <TR><TD ALIGN="LEFT" BORDER="0">
    <FONT FACE="Roboto">email</FONT>
    </TD><TD ALIGN="LEFT">
    <FONT FACE="Roboto">EmailField</FONT>
    </TD></TR>
  
  
  
    <TR><TD ALIGN="LEFT" BORDER="0">
    <FONT FACE="Roboto">image_url</FONT>
    </TD><TD ALIGN="LEFT">
    <FONT FACE="Roboto">ImageField</FONT>
    </TD></TR>
  
  
  
    <TR><TD ALIGN="LEFT" BORDER="0">
    <FONT FACE="Roboto">phone_number</FONT>
    </TD><TD ALIGN="LEFT">
    <FONT FACE="Roboto">CharField</FONT>
    </TD></TR>
  
  
  
    <TR><TD ALIGN="LEFT" BORDER="0">
    <FONT FACE="Roboto">province</FONT>
    </TD><TD ALIGN="LEFT">
    <FONT FACE="Roboto">CharField</FONT>
    </TD></TR>
  
  
  
    <TR><TD ALIGN="LEFT" BORDER="0">
    <FONT FACE="Roboto">rating</FONT>
    </TD><TD ALIGN="LEFT">
    <FONT FACE="Roboto">IntegerField</FONT>
    </TD></TR>
  
  
  
    <TR><TD ALIGN="LEFT" BORDER="0">
    <FONT FACE="Roboto">shop_name</FONT>
    </TD><TD ALIGN="LEFT">
    <FONT FACE="Roboto">CharField</FONT>
    </TD></TR>
  
  
  
    <TR><TD ALIGN="LEFT" BORDER="0">
    <FONT FACE="Roboto">zip_code</FONT>
    </TD><TD ALIGN="LEFT">
    <FONT FACE="Roboto">CharField</FONT>
    </TD></TR>
  
  
    </TABLE>
    >]

  webapp_models_Category [label=<
    <TABLE BGCOLOR="white" BORDER="1" CELLBORDER="0" CELLSPACING="0">
    <TR><TD COLSPAN="2" CELLPADDING="5" ALIGN="CENTER" BGCOLOR="#1b563f">
    <FONT FACE="Roboto" COLOR="white" POINT-SIZE="10"><B>
    Category
    </B></FONT></TD></TR>
  
  
    <TR><TD ALIGN="LEFT" BORDER="0">
    <FONT FACE="Roboto"><B>id</B></FONT>
    </TD><TD ALIGN="LEFT">
    <FONT FACE="Roboto"><B>AutoField</B></FONT>
    </TD></TR>
  
  
  
    <TR><TD ALIGN="LEFT" BORDER="0">
    <FONT FACE="Roboto">category_name</FONT>
    </TD><TD ALIGN="LEFT">
    <FONT FACE="Roboto">CharField</FONT>
    </TD></TR>
  
  
    </TABLE>
    >]

  webapp_models_Allergy [label=<
    <TABLE BGCOLOR="white" BORDER="1" CELLBORDER="0" CELLSPACING="0">
    <TR><TD COLSPAN="2" CELLPADDING="5" ALIGN="CENTER" BGCOLOR="#1b563f">
    <FONT FACE="Roboto" COLOR="white" POINT-SIZE="10"><B>
    Allergy
    </B></FONT></TD></TR>
  
  
    <TR><TD ALIGN="LEFT" BORDER="0">
    <FONT FACE="Roboto"><B>id</B></FONT>
    </TD><TD ALIGN="LEFT">
    <FONT FACE="Roboto"><B>AutoField</B></FONT>
    </TD></TR>
  
  
  
    <TR><TD ALIGN="LEFT" BORDER="0">
    <FONT FACE="Roboto">allergy_name</FONT>
    </TD><TD ALIGN="LEFT">
    <FONT FACE="Roboto">CharField</FONT>
    </TD></TR>
  
  
    </TABLE>
    >]

  webapp_models_Item [label=<
    <TABLE BGCOLOR="white" BORDER="1" CELLBORDER="0" CELLSPACING="0">
    <TR><TD COLSPAN="2" CELLPADDING="5" ALIGN="CENTER" BGCOLOR="#1b563f">
    <FONT FACE="Roboto" COLOR="white" POINT-SIZE="10"><B>
    Item
    </B></FONT></TD></TR>
  
  
    <TR><TD ALIGN="LEFT" BORDER="0">
    <FONT FACE="Roboto"><B>id</B></FONT>
    </TD><TD ALIGN="LEFT">
    <FONT FACE="Roboto"><B>AutoField</B></FONT>
    </TD></TR>
  
  
  
    <TR><TD ALIGN="LEFT" BORDER="0">
    <FONT FACE="Roboto"><B>seller</B></FONT>
    </TD><TD ALIGN="LEFT">
    <FONT FACE="Roboto"><B>ForeignKey (id)</B></FONT>
    </TD></TR>
  
  
  
    <TR><TD ALIGN="LEFT" BORDER="0">
    <FONT FACE="Roboto">approved</FONT>
    </TD><TD ALIGN="LEFT">
    <FONT FACE="Roboto">BooleanField</FONT>
    </TD></TR>
  
  
  
    <TR><TD ALIGN="LEFT" BORDER="0">
    <FONT COLOR="#7B7B7B" FACE="Roboto">availability</FONT>
    </TD><TD ALIGN="LEFT">
    <FONT COLOR="#7B7B7B" FACE="Roboto">BooleanField</FONT>
    </TD></TR>
  
  
  
    <TR><TD ALIGN="LEFT" BORDER="0">
    <FONT COLOR="#7B7B7B" FACE="Roboto">description</FONT>
    </TD><TD ALIGN="LEFT">
    <FONT COLOR="#7B7B7B" FACE="Roboto">TextField</FONT>
    </TD></TR>
  
  
  
    <TR><TD ALIGN="LEFT" BORDER="0">
    <FONT FACE="Roboto">image_url</FONT>
    </TD><TD ALIGN="LEFT">
    <FONT FACE="Roboto">ImageField</FONT>
    </TD></TR>
  
  
  
    <TR><TD ALIGN="LEFT" BORDER="0">
    <FONT FACE="Roboto">item_name</FONT>
    </TD><TD ALIGN="LEFT">
    <FONT FACE="Roboto">CharField</FONT>
    </TD></TR>
  
  
  
    <TR><TD ALIGN="LEFT" BORDER="0">
    <FONT FACE="Roboto">popularity</FONT>
    </TD><TD ALIGN="LEFT">
    <FONT FACE="Roboto">IntegerField</FONT>
    </TD></TR>
  
  
  
    <TR><TD ALIGN="LEFT" BORDER="0">
    <FONT FACE="Roboto">price</FONT>
    </TD><TD ALIGN="LEFT">
    <FONT FACE="Roboto">FloatField</FONT>
    </TD></TR>
  
  
    </TABLE>
    >]

  webapp_models_Order [label=<
    <TABLE BGCOLOR="white" BORDER="1" CELLBORDER="0" CELLSPACING="0">
    <TR><TD COLSPAN="2" CELLPADDING="5" ALIGN="CENTER" BGCOLOR="#1b563f">
    <FONT FACE="Roboto" COLOR="white" POINT-SIZE="10"><B>
    Order
    </B></FONT></TD></TR>
  
  
    <TR><TD ALIGN="LEFT" BORDER="0">
    <FONT FACE="Roboto"><B>id</B></FONT>
    </TD><TD ALIGN="LEFT">
    <FONT FACE="Roboto"><B>AutoField</B></FONT>
    </TD></TR>
  
  
  
    <TR><TD ALIGN="LEFT" BORDER="0">
    <FONT FACE="Roboto"><B>seller</B></FONT>
    </TD><TD ALIGN="LEFT">
    <FONT FACE="Roboto"><B>ForeignKey (id)</B></FONT>
    </TD></TR>
  
  
  
    <TR><TD ALIGN="LEFT" BORDER="0">
    <FONT FACE="Roboto"><B>user</B></FONT>
    </TD><TD ALIGN="LEFT">
    <FONT FACE="Roboto"><B>ForeignKey (id)</B></FONT>
    </TD></TR>
  
  
  
    <TR><TD ALIGN="LEFT" BORDER="0">
    <FONT FACE="Roboto">confirmed</FONT>
    </TD><TD ALIGN="LEFT">
    <FONT FACE="Roboto">BooleanField</FONT>
    </TD></TR>
  
  
  
    <TR><TD ALIGN="LEFT" BORDER="0">
    <FONT COLOR="#7B7B7B" FACE="Roboto">created_time</FONT>
    </TD><TD ALIGN="LEFT">
    <FONT COLOR="#7B7B7B" FACE="Roboto">DateTimeField</FONT>
    </TD></TR>
  
  
  
    <TR><TD ALIGN="LEFT" BORDER="0">
    <FONT FACE="Roboto">paid</FONT>
    </TD><TD ALIGN="LEFT">
    <FONT FACE="Roboto">BooleanField</FONT>
    </TD></TR>
  
  
  
    <TR><TD ALIGN="LEFT" BORDER="0">
    <FONT FACE="Roboto">ready</FONT>
    </TD><TD ALIGN="LEFT">
    <FONT FACE="Roboto">BooleanField</FONT>
    </TD></TR>
  
  
  
    <TR><TD ALIGN="LEFT" BORDER="0">
    <FONT COLOR="#7B7B7B" FACE="Roboto">tax</FONT>
    </TD><TD ALIGN="LEFT">
    <FONT COLOR="#7B7B7B" FACE="Roboto">FloatField</FONT>
    </TD></TR>
  
  
  
    <TR><TD ALIGN="LEFT" BORDER="0">
    <FONT COLOR="#7B7B7B" FACE="Roboto">total</FONT>
    </TD><TD ALIGN="LEFT">
    <FONT COLOR="#7B7B7B" FACE="Roboto">FloatField</FONT>
    </TD></TR>
  
  
    </TABLE>
    >]

  webapp_models_OrderItem [label=<
    <TABLE BGCOLOR="white" BORDER="1" CELLBORDER="0" CELLSPACING="0">
    <TR><TD COLSPAN="2" CELLPADDING="5" ALIGN="CENTER" BGCOLOR="#1b563f">
    <FONT FACE="Roboto" COLOR="white" POINT-SIZE="10"><B>
    OrderItem
    </B></FONT></TD></TR>
  
  
    <TR><TD ALIGN="LEFT" BORDER="0">
    <FONT FACE="Roboto"><B>id</B></FONT>
    </TD><TD ALIGN="LEFT">
    <FONT FACE="Roboto"><B>BigAutoField</B></FONT>
    </TD></TR>
  
  
  
    <TR><TD ALIGN="LEFT" BORDER="0">
    <FONT FACE="Roboto"><B>item</B></FONT>
    </TD><TD ALIGN="LEFT">
    <FONT FACE="Roboto"><B>ForeignKey (id)</B></FONT>
    </TD></TR>
  
  
  
    <TR><TD ALIGN="LEFT" BORDER="0">
    <FONT FACE="Roboto"><B>order</B></FONT>
    </TD><TD ALIGN="LEFT">
    <FONT FACE="Roboto"><B>ForeignKey (id)</B></FONT>
    </TD></TR>
  
  
  
    <TR><TD ALIGN="LEFT" BORDER="0">
    <FONT FACE="Roboto">price</FONT>
    </TD><TD ALIGN="LEFT">
    <FONT FACE="Roboto">DecimalField</FONT>
    </TD></TR>
  
  
  
    <TR><TD ALIGN="LEFT" BORDER="0">
    <FONT FACE="Roboto">quantity</FONT>
    </TD><TD ALIGN="LEFT">
    <FONT FACE="Roboto">PositiveIntegerField</FONT>
    </TD></TR>
  
  
    </TABLE>
    >]

  webapp_models_Address [label=<
    <TABLE BGCOLOR="white" BORDER="1" CELLBORDER="0" CELLSPACING="0">
    <TR><TD COLSPAN="2" CELLPADDING="5" ALIGN="CENTER" BGCOLOR="#1b563f">
    <FONT FACE="Roboto" COLOR="white" POINT-SIZE="10"><B>
    Address
    </B></FONT></TD></TR>
  
  
    <TR><TD ALIGN="LEFT" BORDER="0">
    <FONT FACE="Roboto"><B>id</B></FONT>
    </TD><TD ALIGN="LEFT">
    <FONT FACE="Roboto"><B>AutoField</B></FONT>
    </TD></TR>
  
  
  
    <TR><TD ALIGN="LEFT" BORDER="0">
    <FONT COLOR="#7B7B7B" FACE="Roboto"><B>order</B></FONT>
    </TD><TD ALIGN="LEFT">
    <FONT COLOR="#7B7B7B" FACE="Roboto"><B>ForeignKey (id)</B></FONT>
    </TD></TR>
  
  
  
    <TR><TD ALIGN="LEFT" BORDER="0">
    <FONT COLOR="#7B7B7B" FACE="Roboto"><B>user</B></FONT>
    </TD><TD ALIGN="LEFT">
    <FONT COLOR="#7B7B7B" FACE="Roboto"><B>ForeignKey (id)</B></FONT>
    </TD></TR>
  
  
  
    <TR><TD ALIGN="LEFT" BORDER="0">
    <FONT FACE="Roboto">address_1</FONT>
    </TD><TD ALIGN="LEFT">
    <FONT FACE="Roboto">CharField</FONT>
    </TD></TR>
  
  
  
    <TR><TD ALIGN="LEFT" BORDER="0">
    <FONT COLOR="#7B7B7B" FACE="Roboto">address_2</FONT>
    </TD><TD ALIGN="LEFT">
    <FONT COLOR="#7B7B7B" FACE="Roboto">CharField</FONT>
    </TD></TR>
  
  
  
    <TR><TD ALIGN="LEFT" BORDER="0">
    <FONT FACE="Roboto">city</FONT>
    </TD><TD ALIGN="LEFT">
    <FONT FACE="Roboto">CharField</FONT>
    </TD></TR>
  
  
  
    <TR><TD ALIGN="LEFT" BORDER="0">
    <FONT FACE="Roboto">province</FONT>
    </TD><TD ALIGN="LEFT">
    <FONT FACE="Roboto">CharField</FONT>
    </TD></TR>
  
  
  
    <TR><TD ALIGN="LEFT" BORDER="0">
    <FONT FACE="Roboto">zip_code</FONT>
    </TD><TD ALIGN="LEFT">
    <FONT FACE="Roboto">CharField</FONT>
    </TD></TR>
  
  
    </TABLE>
    >]




  // Relations
  django_contrib_auth_models_User [label=<
  <TABLE BGCOLOR="white" BORDER="0" CELLBORDER="0" CELLSPACING="0">
  <TR><TD COLSPAN="2" CELLPADDING="4" ALIGN="CENTER" BGCOLOR="#1b563f">
  <FONT FACE="Roboto" POINT-SIZE="12" COLOR="white">User</FONT>
  </TD></TR>
  </TABLE>
  >]
  webapp_models_Seller -> django_contrib_auth_models_User
  [label=" user (seller)"] [arrowhead=none, arrowtail=none, dir=both];

  webapp_models_Seller -> webapp_models_OpenHour
  [label=" open_hour (seller)"] [arrowhead=dot arrowtail=dot, dir=both];

  webapp_models_Item -> webapp_models_Seller
  [label=" seller (item)"] [arrowhead=none, arrowtail=dot, dir=both];

  webapp_models_Item -> webapp_models_Category
  [label=" category (item)"] [arrowhead=dot arrowtail=dot, dir=both];

  webapp_models_Item -> webapp_models_Allergy
  [label=" allergy (item)"] [arrowhead=dot arrowtail=dot, dir=both];
  django_contrib_auth_models_User [label=<
  <TABLE BGCOLOR="white" BORDER="0" CELLBORDER="0" CELLSPACING="0">
  <TR><TD COLSPAN="2" CELLPADDING="4" ALIGN="CENTER" BGCOLOR="#1b563f">
  <FONT FACE="Roboto" POINT-SIZE="12" COLOR="white">User</FONT>
  </TD></TR>
  </TABLE>
  >]
  webapp_models_Order -> django_contrib_auth_models_User
  [label=" user (order)"] [arrowhead=none, arrowtail=dot, dir=both];

  webapp_models_Order -> webapp_models_Seller
  [label=" seller (order)"] [arrowhead=none, arrowtail=dot, dir=both];

  webapp_models_OrderItem -> webapp_models_Order
  [label=" order (orderitem)"] [arrowhead=none, arrowtail=dot, dir=both];

  webapp_models_OrderItem -> webapp_models_Item
  [label=" item (orderitem)"] [arrowhead=none, arrowtail=dot, dir=both];

  webapp_models_Address -> webapp_models_Order
  [label=" order (address)"] [arrowhead=none, arrowtail=dot, dir=both];
  django_contrib_auth_models_User [label=<
  <TABLE BGCOLOR="white" BORDER="0" CELLBORDER="0" CELLSPACING="0">
  <TR><TD COLSPAN="2" CELLPADDING="4" ALIGN="CENTER" BGCOLOR="#1b563f">
  <FONT FACE="Roboto" POINT-SIZE="12" COLOR="white">User</FONT>
  </TD></TR>
  </TABLE>
  >]
  webapp_models_Address -> django_contrib_auth_models_User
  [label=" user (address)"] [arrowhead=none, arrowtail=dot, dir=both];


}
